\relax 
\providecommand\hyper@newdestlabel[2]{}
\providecommand\HyperFirstAtBeginDocument{\AtBeginDocument}
\HyperFirstAtBeginDocument{\ifx\hyper@anchor\@undefined
\global\let\oldcontentsline\contentsline
\gdef\contentsline#1#2#3#4{\oldcontentsline{#1}{#2}{#3}}
\global\let\oldnewlabel\newlabel
\gdef\newlabel#1#2{\newlabelxx{#1}#2}
\gdef\newlabelxx#1#2#3#4#5#6{\oldnewlabel{#1}{{#2}{#3}}}
\AtEndDocument{\ifx\hyper@anchor\@undefined
\let\contentsline\oldcontentsline
\let\newlabel\oldnewlabel
\fi}
\fi}
\global\let\hyper@last\relax 
\gdef\HyperFirstAtBeginDocument#1{#1}
\providecommand\HyField@AuxAddToFields[1]{}
\providecommand\HyField@AuxAddToCoFields[2]{}
\@writefile{toc}{\contentsline {section}{\numberline {1}Introduction}{2}{section.1}\protected@file@percent }
\@writefile{toc}{\contentsline {subsection}{\numberline {1.1}Problem Restatement}{2}{subsection.1.1}\protected@file@percent }
\@writefile{toc}{\contentsline {subsection}{\numberline {1.2}Problem Analysis and Our Work}{2}{subsection.1.2}\protected@file@percent }
\@writefile{toc}{\contentsline {section}{\numberline {2}Assumptions and Justifications}{2}{section.2}\protected@file@percent }
\citation{1}
\citation{2}
\@writefile{toc}{\contentsline {section}{\numberline {3}Notations}{3}{section.3}\protected@file@percent }
\@writefile{lot}{\contentsline {table}{\numberline {1}{\ignorespaces Symbols and its Description\relax }}{3}{table.caption.1}\protected@file@percent }
\providecommand*\caption@xref[2]{\@setref\relax\@undefined{#1}}
\newlabel{tab1}{{1}{3}{Symbols and its Description\relax }{table.caption.1}{}}
\@writefile{toc}{\contentsline {section}{\numberline {4}Establishing the model}{3}{section.4}\protected@file@percent }
\@writefile{toc}{\contentsline {subsection}{\numberline {4.1}Establishment of Star Rating and Review Relationships}{3}{subsection.4.1}\protected@file@percent }
\@writefile{toc}{\contentsline {subsubsection}{\numberline {4.1.1}The Process of Reviews Emotion Analysis}{3}{subsubsection.4.1.1}\protected@file@percent }
\citation{3}
\citation{4}
\citation{5}
\citation{6}
\citation{7}
\citation{8}
\@writefile{toc}{\contentsline {subsubsection}{\numberline {4.1.2}Experimental Results and Data Preprocessing}{4}{subsubsection.4.1.2}\protected@file@percent }
\@writefile{toc}{\contentsline {subsection}{\numberline {4.2}Construction of Comment Measures: GHEP Model}{4}{subsection.4.2}\protected@file@percent }
\@writefile{lof}{\contentsline {figure}{\numberline {1}{\ignorespaces Flowchart of Algorithm\relax }}{5}{figure.caption.2}\protected@file@percent }
\@writefile{toc}{\contentsline {subsubsection}{\numberline {4.2.1}Determination of Score $\mathbf  {G}$ based on NLP}{5}{subsubsection.4.2.1}\protected@file@percent }
\@writefile{lof}{\contentsline {figure}{\numberline {2}{\ignorespaces Accuracy Comparison of Machine Learning Algorithm\relax }}{6}{figure.caption.3}\protected@file@percent }
\newlabel{tab:2}{{2}{6}{Accuracy Comparison of Machine Learning Algorithm\relax }{figure.caption.3}{}}
\@writefile{toc}{\contentsline {subsubsection}{\numberline {4.2.2}Setting of other Indicators}{6}{subsubsection.4.2.2}\protected@file@percent }
\@writefile{toc}{\contentsline {subsubsection}{\numberline {4.2.3}Comment Quantitative Value $\mathbf  {C}^{*}$}{7}{subsubsection.4.2.3}\protected@file@percent }
\@writefile{toc}{\contentsline {subsection}{\numberline {4.3}Rating-Review-based Evaluation Metrics}{7}{subsection.4.3}\protected@file@percent }
\@writefile{toc}{\contentsline {subsection}{\numberline {4.4}Various Product Metrics}{8}{subsection.4.4}\protected@file@percent }
\@writefile{lot}{\contentsline {table}{\numberline {2}{\ignorespaces Product Index Information\relax }}{8}{table.caption.4}\protected@file@percent }
\@writefile{toc}{\contentsline {section}{\numberline {5}Solving the Model}{9}{section.5}\protected@file@percent }
\@writefile{toc}{\contentsline {subsection}{\numberline {5.1}Time Effects of Product Measures}{9}{subsection.5.1}\protected@file@percent }
\@writefile{toc}{\contentsline {subsubsection}{\numberline {5.1.1}Hairdryer}{9}{subsubsection.5.1.1}\protected@file@percent }
\@writefile{toc}{\contentsline {subsubsection}{\numberline {5.1.2}Microwave}{9}{subsubsection.5.1.2}\protected@file@percent }
\@writefile{toc}{\contentsline {subsection}{\numberline {5.2}The Outlook of Product}{9}{subsection.5.2}\protected@file@percent }
\@writefile{lof}{\contentsline {figure}{\numberline {3}{\ignorespaces Average Rating Value over the years\relax }}{10}{figure.caption.5}\protected@file@percent }
\newlabel{fig:1}{{3}{10}{Average Rating Value over the years\relax }{figure.caption.5}{}}
\@writefile{lof}{\contentsline {subfigure}{\numberline{(a)}{\ignorespaces {Hairdryer}}}{10}{subfigure.3.1}\protected@file@percent }
\@writefile{lof}{\contentsline {subfigure}{\numberline{(b)}{\ignorespaces {Microwave}}}{10}{subfigure.3.2}\protected@file@percent }
\@writefile{lof}{\contentsline {figure}{\numberline {4}{\ignorespaces The Evaluation Trend of these two Products\relax }}{10}{figure.caption.6}\protected@file@percent }
\newlabel{fig:4}{{4}{10}{The Evaluation Trend of these two Products\relax }{figure.caption.6}{}}
\@writefile{lof}{\contentsline {subfigure}{\numberline{(a)}{\ignorespaces {Microwave}}}{10}{subfigure.4.1}\protected@file@percent }
\@writefile{lof}{\contentsline {subfigure}{\numberline{(b)}{\ignorespaces {Hairdryer}}}{10}{subfigure.4.2}\protected@file@percent }
\citation{9}
\citation{10}
\citation{11}
\citation{12}
\@writefile{toc}{\contentsline {subsection}{\numberline {5.3}Causal Inference of Specific Star Ratings and Reviews}{11}{subsection.5.3}\protected@file@percent }
\@writefile{toc}{\contentsline {subsubsection}{\numberline {5.3.1}A Brief Introduction to Causal Inference}{11}{subsubsection.5.3.1}\protected@file@percent }
\@writefile{toc}{\contentsline {subsubsection}{\numberline {5.3.2}Propensity Score Matching based on Bootstrap}{11}{subsubsection.5.3.2}\protected@file@percent }
\@writefile{toc}{\contentsline {subsubsection}{\numberline {5.3.3}Process and via PSM based on bootstrap to data}{12}{subsubsection.5.3.3}\protected@file@percent }
\@writefile{lof}{\contentsline {figure}{\numberline {5}{\ignorespaces Common Value Range of 9 Sub-Models Propensity Scores\relax }}{13}{figure.caption.7}\protected@file@percent }
\newlabel{fig:90}{{5}{13}{Common Value Range of 9 Sub-Models Propensity Scores\relax }{figure.caption.7}{}}
\@writefile{lof}{\contentsline {figure}{\numberline {6}{\ignorespaces Probability Density of 9 Models Propensity Scores Before and After Matching\relax }}{14}{figure.caption.8}\protected@file@percent }
\newlabel{fig:100}{{6}{14}{Probability Density of 9 Models Propensity Scores Before and After Matching\relax }{figure.caption.8}{}}
\@writefile{lot}{\contentsline {table}{\numberline {3}{\ignorespaces The ATT Estimated Results based on Bootstrap Propensity Score Matching\relax }}{15}{table.caption.9}\protected@file@percent }
\newlabel{tab:100}{{3}{15}{The ATT Estimated Results based on Bootstrap Propensity Score Matching\relax }{table.caption.9}{}}
\@writefile{toc}{\contentsline {subsection}{\numberline {5.4}Relationship between Rating and Specific Quality Descriptors}{15}{subsection.5.4}\protected@file@percent }
\@writefile{lof}{\contentsline {figure}{\numberline {7}{\ignorespaces Violin Plots of three Products\relax }}{16}{figure.caption.10}\protected@file@percent }
\newlabel{fig:3}{{7}{16}{Violin Plots of three Products\relax }{figure.caption.10}{}}
\@writefile{lof}{\contentsline {subfigure}{\numberline{(a)}{\ignorespaces {Hairdryer}}}{16}{subfigure.7.1}\protected@file@percent }
\@writefile{lof}{\contentsline {subfigure}{\numberline{(b)}{\ignorespaces {Microwave}}}{16}{subfigure.7.2}\protected@file@percent }
\@writefile{lof}{\contentsline {subfigure}{\numberline{(c)}{\ignorespaces {Pacifier}}}{16}{subfigure.7.3}\protected@file@percent }
\@writefile{toc}{\contentsline {section}{\numberline {6}Sensitivity Analysis}{16}{section.6}\protected@file@percent }
\@writefile{lof}{\contentsline {figure}{\numberline {8}{\ignorespaces Parameter Analysis\relax }}{17}{figure.caption.11}\protected@file@percent }
\newlabel{fig:ff}{{8}{17}{Parameter Analysis\relax }{figure.caption.11}{}}
\@writefile{toc}{\contentsline {section}{\numberline {7}Strengths and Weaknesses}{17}{section.7}\protected@file@percent }
\@writefile{toc}{\contentsline {subsection}{\numberline {7.1}Strengths}{17}{subsection.7.1}\protected@file@percent }
\@writefile{toc}{\contentsline {subsection}{\numberline {7.2}Weaknesses}{18}{subsection.7.2}\protected@file@percent }
\@writefile{toc}{\contentsline {subsection}{\numberline {7.3}Further Discussion}{18}{subsection.7.3}\protected@file@percent }
\@writefile{toc}{\contentsline {section}{\numberline {8}Strategy Recommendation and Conclusions}{19}{section.8}\protected@file@percent }
\bibcite{1}{1}
\bibcite{2}{2}
\bibcite{3}{3}
\bibcite{4}{4}
\bibcite{5}{5}
\bibcite{6}{6}
\bibcite{7}{7}
\bibcite{8}{8}
\bibcite{9}{9}
\bibcite{10}{10}
\bibcite{11}{11}
\bibcite{12}{12}
\@writefile{toc}{\contentsline {section}{Appendices}{21}{section*.13}\protected@file@percent }
\@writefile{toc}{\contentsline {section}{Appendix \numberline {A}Code for Part 3.1}{21}{appendix.a.A}\protected@file@percent }
\@writefile{toc}{\contentsline {section}{Appendix \numberline {B}Code for Part 3.3}{25}{appendix.a.B}\protected@file@percent }
\newlabel{Appen1}{{B}{28}{Code for Part 3.3}{lstnumber.-2.167}{}}
\newlabel{LastPage}{{}{28}{}{page.28}{}}
\xdef\lastpage@lastpage{28}
\xdef\lastpage@lastpageHy{28}
\gdef \@abspage@last{29}
